tb/sim_out(1).vcd
$date
	Wed Apr 13 04:28:58 2022
$end
$version
	Icarus Verilog
$end
$timescale
	1ps
$end
$scope module tb_rvseed $end
$var wire 32 ! a0_x10 [31:0] $end
$var wire 32 " a1_x11 [31:0] $end
$var wire 32 # a2_x12 [31:0] $end
$var wire 32 $ a3_x13 [31:0] $end
$var wire 32 % a4_x14 [31:0] $end
$var wire 32 & a5_x15 [31:0] $end
$var wire 32 ' a6_x16 [31:0] $end
$var wire 32 ( a7_x17 [31:0] $end
$var wire 32 ) gp_x3 [31:0] $end
$var wire 32 * ra_x1 [31:0] $end
$var wire 32 + s0_fp_x8 [31:0] $end
$var wire 32 , s10_x26 [31:0] $end
$var wire 32 - s11_x27 [31:0] $end
$var wire 32 . s1_x9 [31:0] $end
$var wire 32 / s2_x18 [31:0] $end
$var wire 32 0 s3_x19 [31:0] $end
$var wire 32 1 s4_x20 [31:0] $end
$var wire 32 2 s5_x21 [31:0] $end
$var wire 32 3 s6_x22 [31:0] $end
$var wire 32 4 s7_x23 [31:0] $end
$var wire 32 5 s8_x24 [31:0] $end
$var wire 32 6 s9_x25 [31:0] $end
$var wire 32 7 sp_x2 [31:0] $end
$var wire 32 8 t0_x5 [31:0] $end
$var wire 32 9 t1_x6 [31:0] $end
$var wire 32 : t2_x7 [31:0] $end
$var wire 32 ; t3_x28 [31:0] $end
$var wire 32 < t4_x29 [31:0] $end
$var wire 32 = t5_x30 [31:0] $end
$var wire 32 > t6_x31 [31:0] $end
$var wire 32 ? tp_x4 [31:0] $end
$var wire 32 @ zero_x0 [31:0] $end
$var reg 1 A clk $end
$var reg 40 B inst_name [39:0] $end
$var reg 1 C rst_n $end
$var integer 32 D r [31:0] $end
$scope module u_rvseed_0 $end
$var wire 1 A clk $end
$var wire 32 E reg_wdata [31:0] $end
$var wire 1 C rst_n $end
$var wire 1 F zero $end
$var wire 1 G reg_wen $end
$var wire 5 H reg_waddr [4:0] $end
$var wire 32 I reg2_rdata [31:0] $end
$var wire 5 J reg2_raddr [4:0] $end
$var wire 32 K reg1_rdata [31:0] $end
$var wire 5 L reg1_raddr [4:0] $end
$var wire 32 M next_pc [31:0] $end
$var wire 1 N jump $end
$var wire 32 O inst [31:0] $end
$var wire 3 P imm_gen_op [2:0] $end
$var wire 32 Q imm [31:0] $end
$var wire 1 R ena $end
$var wire 32 S curr_pc [31:0] $end
$var wire 1 T branch $end
$var wire 2 U alu_src_sel [1:0] $end
$var wire 32 V alu_src2 [31:0] $end
$var wire 32 W alu_src1 [31:0] $end
$var wire 32 X alu_res [31:0] $end
$var wire 4 Y alu_op [3:0] $end
$scope module u_alu_0 $end
$var wire 32 Z alu_src2 [31:0] $end
$var wire 32 [ alu_src1 [31:0] $end
$var wire 4 \ alu_op [3:0] $end
$var reg 32 ] alu_res [31:0] $end
$var reg 1 F zero $end
$upscope $end
$scope module u_ctrl_0 $end
$var wire 5 ^ rs2 [4:0] $end
$var wire 5 _ rs1 [4:0] $end
$var wire 5 ` rd [4:0] $end
$var wire 7 a opcode [6:0] $end
$var wire 32 b inst [31:0] $end
$var wire 7 c funct7 [6:0] $end
$var wire 3 d funct3 [2:0] $end
$var reg 4 e alu_op [3:0] $end
$var reg 2 f alu_src_sel [1:0] $end
$var reg 1 T branch $end
$var reg 3 g imm_gen_op [2:0] $end
$var reg 1 N jump $end
$var reg 5 h reg1_raddr [4:0] $end
$var reg 5 i reg2_raddr [4:0] $end
$var reg 5 j reg_waddr [4:0] $end
$var reg 1 G reg_wen $end
$upscope $end
$scope module u_imm_gen_0 $end
$var wire 3 k imm_gen_op [2:0] $end
$var wire 32 l inst [31:0] $end
$var reg 32 m imm [31:0] $end
$upscope $end
$scope module u_inst_mem_0 $end
$var wire 32 n curr_pc [31:0] $end
$var reg 32 o inst [31:0] $end
$upscope $end
$scope module u_mux_alu_0 $end
$var wire 2 p alu_src_sel [1:0] $end
$var wire 32 q imm [31:0] $end
$var wire 32 r reg2_rdata [31:0] $end
$var wire 32 s reg1_rdata [31:0] $end
$var wire 32 t curr_pc [31:0] $end
$var reg 32 u alu_src1 [31:0] $end
$var reg 32 v alu_src2 [31:0] $end
$upscope $end
$scope module u_mux_pc_0 $end
$var wire 1 T branch $end
$var wire 32 w imm [31:0] $end
$var wire 1 N jump $end
$var wire 1 F zero $end
$var wire 1 R ena $end
$var wire 32 x curr_pc [31:0] $end
$var reg 32 y next_pc [31:0] $end
$upscope $end
$scope module u_pc_reg_0 $end
$var wire 1 A clk $end
$var wire 32 z next_pc [31:0] $end
$var wire 1 C rst_n $end
$var reg 32 { curr_pc [31:0] $end
$var reg 1 R ena $end
$upscope $end
$scope module u_reg_file_0 $end
$var wire 1 A clk $end
$var wire 5 | reg1_raddr [4:0] $end
$var wire 5 } reg2_raddr [4:0] $end
$var wire 5 ~ reg_waddr [4:0] $end
$var wire 32 !" reg_wdata [31:0] $end
$var wire 1 G reg_wen $end
$var wire 1 C rst_n $end
$var reg 32 "" reg1_rdata [31:0] $end
$var reg 32 #" reg2_rdata [31:0] $end
$upscope $end
$upscope $end
$scope task inst_load $end
$var reg 40 $" inst_name [39:0] $end
$upscope $end
$scope task reset $end
$upscope $end
$upscope $end
$enddefinitions $end
#0
$dumpvars
bx $"
bx #"
bx ""
bx !"
bx ~
bx }
bx |
bx {
bx z
bx y
bx x
bx w
bx v
bx u
bx t
bx s
bx r
bx q
bx p
bx o
bx n
bx m
bx l
bx k
bx j
bx i
bx h
bx g
bx f
bx e
bx d
bx c
bx b
bx a
bx `
bx _
bx ^
bx ]
bx \
bx [
bx Z
bx Y
bx X
bx W
bx V
bx U
xT
bx S
xR
bx Q
bx P
bx O
xN
bx M
bx L
bx K
bx J
bx I
bx H
xG
xF
bx E
bx D
xC
bx B
xA
bx @
bx ?
bx >
bx =
bx <
bx ;
bx :
bx 9
bx 8
bx 7
bx 6
bx 5
bx 4
bx 3
bx 2
bx 1
bx 0
bx /
bx .
bx -
bx ,
bx +
bx *
bx )
bx (
bx '
bx &
bx %
bx $
bx #
bx "
bx !
$end
#10000
b0 V
b0 Z
b0 v
b0 W
b0 [
b0 u
b0 E
b0 !"
b0 X
b0 ]
0F
b0 I
b0 r
b0 #"
b0 K
b0 s
b0 ""
b1 U
b1 f
b1 p
b11 Y
b11 \
b11 e
b0 P
b0 g
b0 k
b11010 H
b11010 j
b11010 ~
b0 J
b0 i
b0 }
b0 L
b0 h
b0 |
1G
0N
0T
b0 ^
b0 _
b11010 `
b0 c
b0 d
b10011 a
b0 Q
b0 m
b0 q
b0 w
b110100010011 O
b110100010011 b
b110100010011 l
b110100010011 o
b0 M
b0 y
b0 z
0R
b0 S
b0 n
b0 t
b0 x
b0 {
b10000010100010001000100 $"
b10000010100010001000100 B
0C
1A
#20000
0A
#30000
b100 M
b100 y
b100 z
b0 ,
1R
1A
1C
#40000
0A
#50000
b1 U
b1 f
b1 p
b11 Y
b11 \
b11 e
b11011 H
b11011 j
b11011 ~
1G
b11011 `
b110110010011 O
b110110010011 b
b110110010011 l
b110110010011 o
b1000 M
b1000 y
b1000 z
b100 S
b100 n
b100 t
b100 x
b100 {
1A
#60000
0A
#70000
b1 U
b1 f
b1 p
b11 Y
b11 \
b11 e
b1 H
b1 j
b1 ~
1G
b1 `
b10010011 O
b10010011 b
b10010011 l
b10010011 o
b1100 M
b1100 y
b1100 z
b0 -
b1000 S
b1000 n
b1000 t
b1000 x
b1000 {
1A
#80000
0A
#90000
b1 U
b1 f
b1 p
b11 Y
b11 \
b11 e
b10 H
b10 j
b10 ~
1G
b10 `
b100010011 O
b100010011 b
b100010011 l
b100010011 o
b10000 M
b10000 y
b10000 z
b1100 S
b1100 n
b1100 t
b1100 x
b1100 {
b0 *
1A
#100000
0A
#110000
b0 E
b0 !"
b0 X
b0 ]
b10 J
b10 i
b10 }
b1 L
b1 h
b1 |
b0 U
b0 f
b0 p
b11 Y
b11 \
b11 e
b11110 H
b11110 j
b11110 ~
1G
b0 V
b0 Z
b0 v
b10 ^
b1 _
b11110 `
b110011 a
b10 Q
b10 m
b10 q
b10 w
b1000001000111100110011 O
b1000001000111100110011 b
b1000001000111100110011 l
b1000001000111100110011 o
b10100 M
b10100 y
b10100 z
b0 7
b10000 S
b10000 n
b10000 t
b10000 x
b10000 {
1A
#120000
0A
#130000
b1 U
b1 f
b1 p
b11 Y
b11 \
b11 e
b11101 H
b11101 j
b11101 ~
b0 J
b0 i
b0 }
b0 L
b0 h
b0 |
1G
b0 ^
b0 _
b11101 `
b10011 a
b0 Q
b0 m
b0 q
b0 w
b111010010011 O
b111010010011 b
b111010010011 l
b111010010011 o
b11000 M
b11000 y
b11000 z
b10100 S
b10100 n
b10100 t
b10100 x
b10100 {
b0 =
1A
#140000
0A
#150000
b10 E
b10 !"
b10 X
b10 ]
b1 U
b1 f
b1 p
b11 Y
b11 \
b11 e
b11 H
b11 j
b11 ~
1G
b10 V
b10 Z
b10 v
b10 ^
b11 `
b10 Q
b10 m
b10 q
b10 w
b1000000000000110010011 O
b1000000000000110010011 b
b1000000000000110010011 l
b1000000000000110010011 o
b11100 M
b11100 y
b11100 z
b0 <
b11000 S
b11000 n
b11000 t
b11000 x
b11000 {
1A
#160000
0A
#170000
1F
1T
b10 P
b10 g
b10 k
b11101 J
b11101 i
b11101 }
b11110 L
b11110 h
b11110 |
b0 U
b0 f
b0 p
b100 Y
b100 \
b100 e
b0 H
b0 j
b0 ~
0G
b11101 ^
b11110 _
b1100 `
b100110 c
b1 d
b1100011 a
b10011001100 Q
b10011001100 m
b10011001100 q
b10011001100 w
b0 E
b0 !"
b0 X
b0 ]
b1001101110111110001011001100011 O
b1001101110111110001011001100011 b
b1001101110111110001011001100011 l
b1001101110111110001011001100011 o
b0 V
b0 Z
b0 v
b100000 M
b100000 y
b100000 z
b11100 S
b11100 n
b11100 t
b11100 x
b11100 {
b10 )
1A
#180000
0A
#190000
b1 E
b1 !"
b1 X
b1 ]
b1 V
b1 Z
b1 v
0F
b1 U
b1 f
b1 p
b1 H
b1 j
b1 ~
1G
b11 Y
b11 \
b11 e
b0 P
b0 g
b0 k
b0 J
b0 i
b0 }
b0 L
b0 h
b0 |
0T
b1 ^
b0 _
b1 `
b0 c
b0 d
b10011 a
b1 Q
b1 m
b1 q
b1 w
b100000000000010010011 O
b100000000000010010011 b
b100000000000010010011 l
b100000000000010010011 o
b100100 M
b100100 y
b100100 z
b100000 S
b100000 n
b100000 t
b100000 x
b100000 {
1A
#200000
0A
#210000
b1 U
b1 f
b1 p
b11 Y
b11 \
b11 e
b10 H
b10 j
b10 ~
1G
b10 `
b1 Q
b1 m
b1 q
b1 w
b1 E
b1 !"
b1 X
b1 ]
b100000000000100010011 O
b100000000000100010011 b
b100000000000100010011 l
b100000000000100010011 o
b1 V
b1 Z
b1 v
b101000 M
b101000 y
b101000 z
b100100 S
b100100 n
b100100 t
b100100 x
b100100 {
b1 *
1A
#220000
0A
#230000
b1 W
b1 [
b1 u
b1 I
b1 r
b1 #"
b1 K
b1 s
b1 ""
b10 J
b10 i
b10 }
b1 L
b1 h
b1 |
b0 U
b0 f
b0 p
b11 Y
b11 \
b11 e
b11110 H
b11110 j
b11110 ~
1G
b10 ^
b1 _
b11110 `
b110011 a
b10 Q
b10 m
b10 q
b10 w
b10 E
b10 !"
b10 X
b10 ]
b1000001000111100110011 O
b1000001000111100110011 b
b1000001000111100110011 l
b1000001000111100110011 o
b1 V
b1 Z
b1 v
b101100 M
b101100 y
b101100 z
b1 7
b101000 S
b101000 n
b101000 t
b101000 x
b101000 {
1A
#240000
0A
#250000
b10 V
b10 Z
b10 v
b0 W
b0 [
b0 u
b10 E
b10 !"
b10 X
b10 ]
b0 I
b0 r
b0 #"
b0 K
b0 s
b0 ""
b1 U
b1 f
b1 p
b11 Y
b11 \
b11 e
b11101 H
b11101 j
b11101 ~
b0 J
b0 i
b0 }
b0 L
b0 h
b0 |
1G
b0 _
b11101 `
b10011 a
b10 Q
b10 m
b10 q
b10 w
b1000000000111010010011 O
b1000000000111010010011 b
b1000000000111010010011 l
b1000000000111010010011 o
b110000 M
b110000 y
b110000 z
b101100 S
b101100 n
b101100 t
b101100 x
b101100 {
b10 =
1A
#260000
0A
#270000
b1 U
b1 f
b1 p
b11 Y
b11 \
b11 e
b11 H
b11 j
b11 ~
1G
b11 ^
b11 `
b11 Q
b11 m
b11 q
b11 w
b11 E
b11 !"
b11 X
b11 ]
b1100000000000110010011 O
b1100000000000110010011 b
b1100000000000110010011 l
b1100000000000110010011 o
b11 V
b11 Z
b11 v
b110100 M
b110100 y
b110100 z
b10 <
b110000 S
b110000 n
b110000 t
b110000 x
b110000 {
1A
#280000
0A
#290000
b10 W
b10 [
b10 u
1F
b10 I
b10 r
b10 #"
b10 K
b10 s
b10 ""
1T
b10 P
b10 g
b10 k
b11101 J
b11101 i
b11101 }
b11110 L
b11110 h
b11110 |
b0 U
b0 f
b0 p
b100 Y
b100 \
b100 e
b0 H
b0 j
b0 ~
0G
b11101 ^
b11110 _
b10100 `
b100101 c
b1 d
b1100011 a
b10010110100 Q
b10010110100 m
b10010110100 q
b10010110100 w
b0 E
b0 !"
b0 X
b0 ]
b1001011110111110001101001100011 O
b1001011110111110001101001100011 b
b1001011110111110001101001100011 l
b1001011110111110001101001100011 o
b10 V
b10 Z
b10 v
b111000 M
b111000 y
b111000 z
b110100 S
b110100 n
b110100 t
b110100 x
b110100 {
b11 )
1A
#300000
0A
#310000
b11 V
b11 Z
b11 v
b0 W
b0 [
b0 u
b11 E
b11 !"
b11 X
b11 ]
0F
b0 I
b0 r
b0 #"
b0 K
b0 s
b0 ""
b1 U
b1 f
b1 p
b1 H
b1 j
b1 ~
1G
b11 Y
b11 \
b11 e
b0 P
b0 g
b0 k
b0 J
b0 i
b0 }
b0 L
b0 h
b0 |
0T
b11 ^
b0 _
b1 `
b0 c
b0 d
b10011 a
b11 Q
b11 m
b11 q
b11 w
b1100000000000010010011 O
b1100000000000010010011 b
b1100000000000010010011 l
b1100000000000010010011 o
b111100 M
b111100 y
b111100 z
b111000 S
b111000 n
b111000 t
b111000 x
b111000 {
1A
#320000
0A
#330000
b1 U
b1 f
b1 p
b11 Y
b11 \
b11 e
b10 H
b10 j
b10 ~
1G
b111 ^
b10 `
b111 Q
b111 m
b111 q
b111 w
b111 E
b111 !"
b111 X
b111 ]
b11100000000000100010011 O
b11100000000000100010011 b
b11100000000000100010011 l
b11100000000000100010011 o
b111 V
b111 Z
b111 v
b1000000 M
b1000000 y
b1000000 z
b111100 S
b111100 n
b111100 t
b111100 x
b111100 {
b11 *
1A
#340000
0A
#350000
b11 W
b11 [
b11 u
b111 I
b111 r
b111 #"
b11 K
b11 s
b11 ""
b10 J
b10 i
b10 }
b1 L
b1 h
b1 |
b0 U
b0 f
b0 p
b11 Y
b11 \
b11 e
b11110 H
b11110 j
b11110 ~
1G
b10 ^
b1 _
b11110 `
b110011 a
b10 Q
b10 m
b10 q
b10 w
b1010 E
b1010 !"
b1010 X
b1010 ]
b1000001000111100110011 O
b1000001000111100110011 b
b1000001000111100110011 l
b1000001000111100110011 o
b111 V
b111 Z
b111 v
b1000100 M
b1000100 y
b1000100 z
b111 7
b1000000 S
b1000000 n
b1000000 t
b1000000 x
b1000000 {
1A
#360000
0A
#370000
b1010 V
b1010 Z
b1010 v
b0 W
b0 [
b0 u
b1010 E
b1010 !"
b1010 X
b1010 ]
b0 I
b0 r
b0 #"
b0 K
b0 s
b0 ""
b1 U
b1 f
b1 p
b11 Y
b11 \
b11 e
b11101 H
b11101 j
b11101 ~
b0 J
b0 i
b0 }
b0 L
b0 h
b0 |
1G
b1010 ^
b0 _
b11101 `
b10011 a
b1010 Q
b1010 m
b1010 q
b1010 w
b101000000000111010010011 O
b101000000000111010010011 b
b101000000000111010010011 l
b101000000000111010010011 o
b1001000 M
b1001000 y
b1001000 z
b1000100 S
b1000100 n
b1000100 t
b1000100 x
b1000100 {
b1010 =
1A
#380000
0A
#390000
b1 U
b1 f
b1 p
b11 Y
b11 \
b11 e
b11 H
b11 j
b11 ~
1G
b100 ^
b11 `
b100 Q
b100 m
b100 q
b100 w
b100 E
b100 !"
b100 X
b100 ]
b10000000000000110010011 O
b10000000000000110010011 b
b10000000000000110010011 l
b10000000000000110010011 o
b100 V
b100 Z
b100 v
b1001100 M
b1001100 y
b1001100 z
b1010 <
b1001000 S
b1001000 n
b1001000 t
b1001000 x
b1001000 {
1A
#400000
0A
#410000
b1010 W
b1010 [
b1010 u
1F
b1010 I
b1010 r
b1010 #"
b1010 K
b1010 s
b1010 ""
1T
b10 P
b10 g
b10 k
b11101 J
b11101 i
b11101 }
b11110 L
b11110 h
b11110 |
b0 U
b0 f
b0 p
b100 Y
b100 \
b100 e
b0 H
b0 j
b0 ~
0G
b11101 ^
b11110 _
b11100 `
b100100 c
b1 d
b1100011 a
b10010011100 Q
b10010011100 m
b10010011100 q
b10010011100 w
b0 E
b0 !"
b0 X
b0 ]
b1001001110111110001111001100011 O
b1001001110111110001111001100011 b
b1001001110111110001111001100011 l
b1001001110111110001111001100011 o
b1010 V
b1010 Z
b1010 v
b1010000 M
b1010000 y
b1010000 z
b1001100 S
b1001100 n
b1001100 t
b1001100 x
b1001100 {
b100 )
1A
#420000
0A
#430000
b0 V
b0 Z
b0 v
b0 W
b0 [
b0 u
b0 E
b0 !"
b0 X
b0 ]
0F
b0 I
b0 r
b0 #"
b0 K
b0 s
b0 ""
b1 U
b1 f
b1 p
b1 H
b1 j
b1 ~
1G
b11 Y
b11 \
b11 e
b0 P
b0 g
b0 k
b0 J
b0 i
b0 }
b0 L
b0 h
b0 |
0T
b0 ^
b0 _
b1 `
b0 c
b0 d
b10011 a
b0 Q
b0 m
b0 q
b0 w
b10010011 O
b10010011 b
b10010011 l
b10010011 o
b1010100 M
b1010100 y
b1010100 z
b1010000 S
b1010000 n
b1010000 t
b1010000 x
b1010000 {
1A
#440000
0A
#450000
b11111111111111111000000000000000 E
b11111111111111111000000000000000 !"
b11111111111111111000000000000000 X
b11111111111111111000000000000000 ]
b100 P
b100 g
b100 k
b1 U
b1 f
b1 p
b11 Y
b11 \
b11 e
b10 H
b10 j
b10 ~
1G
b11111111111111111000000000000000 V
b11111111111111111000000000000000 Z
b11111111111111111000000000000000 v
b11111 ^
b11111 _
b10 `
b1111111 c
b110111 a
b11111111111111111000000000000000 Q
b11111111111111111000000000000000 m
b11111111111111111000000000000000 q
b11111111111111111000000000000000 w
b11111111111111111000000100110111 O
b11111111111111111000000100110111 b
b11111111111111111000000100110111 l
b11111111111111111000000100110111 o
b1011000 M
b1011000 y
b1011000 z
b1010100 S
b1010100 n
b1010100 t
b1010100 x
b1010100 {
b0 *
1A
#460000
0A
#470000
b11111111111111111000000000000000 I
b11111111111111111000000000000000 r
b11111111111111111000000000000000 #"
b10 J
b10 i
b10 }
b1 L
b1 h
b1 |
b0 U
b0 f
b0 p
b11 Y
b11 \
b11 e
b0 P
b0 g
b0 k
b11110 H
b11110 j
b11110 ~
1G
b10 ^
b1 _
b11110 `
b0 c
b110011 a
b10 Q
b10 m
b10 q
b10 w
b11111111111111111000000000000000 E
b11111111111111111000000000000000 !"
b11111111111111111000000000000000 X
b11111111111111111000000000000000 ]
b1000001000111100110011 O
b1000001000111100110011 b
b1000001000111100110011 l
b1000001000111100110011 o
b11111111111111111000000000000000 V
b11111111111111111000000000000000 Z
b11111111111111111000000000000000 v
b1011100 M
b1011100 y
b1011100 z
b11111111111111111000000000000000 7
b1011000 S
b1011000 n
b1011000 t
b1011000 x
b1011000 {
1A
#480000
0A
#490000
b11111111111111111000000000000000 V
b11111111111111111000000000000000 Z
b11111111111111111000000000000000 v
b11111111111111111000000000000000 E
b11111111111111111000000000000000 !"
b11111111111111111000000000000000 X
b11111111111111111000000000000000 ]
b0 I
b0 r
b0 #"
b1 U
b1 f
b1 p
b100 P
b100 g
b100 k
b11 Y
b11 \
b11 e
b11101 H
b11101 j
b11101 ~
b0 J
b0 i
b0 }
b0 L
b0 h
b0 |
1G
b11111 ^
b11111 _
b11101 `
b1111111 c
b110111 a
b11111111111111111000000000000000 Q
b11111111111111111000000000000000 m
b11111111111111111000000000000000 q
b11111111111111111000000000000000 w
b11111111111111111000111010110111 O
b11111111111111111000111010110111 b
b11111111111111111000111010110111 l
b11111111111111111000111010110111 o
b1100000 M
b1100000 y
b1100000 z
b1011100 S
b1011100 n
b1011100 t
b1011100 x
b1011100 {
b11111111111111111000000000000000 =
1A
#500000
0A
#510000
b1 U
b1 f
b1 p
b11 Y
b11 \
b11 e
b0 P
b0 g
b0 k
b11 H
b11 j
b11 ~
1G
b101 ^
b0 _
b11 `
b0 c
b10011 a
b101 Q
b101 m
b101 q
b101 w
b101 E
b101 !"
b101 X
b101 ]
b10100000000000110010011 O
b10100000000000110010011 b
b10100000000000110010011 l
b10100000000000110010011 o
b101 V
b101 Z
b101 v
b1100100 M
b1100100 y
b1100100 z
b11111111111111111000000000000000 <
b1100000 S
b1100000 n
b1100000 t
b1100000 x
b1100000 {
1A
#520000
0A
#530000
b11111111111111111000000000000000 W
b11111111111111111000000000000000 [
b11111111111111111000000000000000 u
1F
b11111111111111111000000000000000 I
b11111111111111111000000000000000 r
b11111111111111111000000000000000 #"
b11111111111111111000000000000000 K
b11111111111111111000000000000000 s
b11111111111111111000000000000000 ""
1T
b10 P
b10 g
b10 k
b11101 J
b11101 i
b11101 }
b11110 L
b11110 h
b11110 |
b0 U
b0 f
b0 p
b100 Y
b100 \
b100 e
b0 H
b0 j
b0 ~
0G
b11101 ^
b11110 _
b100 `
b100100 c
b1 d
b1100011 a
b10010000100 Q
b10010000100 m
b10010000100 q
b10010000100 w
b0 E
b0 !"
b0 X
b0 ]
b1001001110111110001001001100011 O
b1001001110111110001001001100011 b
b1001001110111110001001001100011 l
b1001001110111110001001001100011 o
b11111111111111111000000000000000 V
b11111111111111111000000000000000 Z
b11111111111111111000000000000000 v
b1101000 M
b1101000 y
b1101000 z
b1100100 S
b1100100 n
b1100100 t
b1100100 x
b1100100 {
b101 )
1A
#540000
0A
#550000
b10000000000000000000000000000000 V
b10000000000000000000000000000000 Z
b10000000000000000000000000000000 v
b0 W
b0 [
b0 u
b10000000000000000000000000000000 E
b10000000000000000000000000000000 !"
b10000000000000000000000000000000 X
b10000000000000000000000000000000 ]
0F
b0 I
b0 r
b0 #"
b0 K
b0 s
b0 ""
b1 U
b1 f
b1 p
b1 H
b1 j
b1 ~
1G
b11 Y
b11 \
b11 e
b100 P
b100 g
b100 k
b0 J
b0 i
b0 }
b0 L
b0 h
b0 |
0T
b0 ^
b0 _
b1 `
b1000000 c
b0 d
b110111 a
b10000000000000000000000000000000 Q
b10000000000000000000000000000000 m
b10000000000000000000000000000000 q
b10000000000000000000000000000000 w
b10000000000000000000000010110111 O
b10000000000000000000000010110111 b
b10000000000000000000000010110111 l
b10000000000000000000000010110111 o
b1101100 M
b1101100 y
b1101100 z
b1101000 S
b1101000 n
b1101000 t
b1101000 x
b1101000 {
1A
#560000
0A
#570000
b1 U
b1 f
b1 p
b11 Y
b11 \
b11 e
b0 P
b0 g
b0 k
b10 H
b10 j
b10 ~
1G
b10 `
b0 c
b10011 a
b0 Q
b0 m
b0 q
b0 w
b0 E
b0 !"
b0 X
b0 ]
b100010011 O
b100010011 b
b100010011 l
b100010011 o
b0 V
b0 Z
b0 v
b1110000 M
b1110000 y
b1110000 z
b1101100 S
b1101100 n
b1101100 t
b1101100 x
b1101100 {
b10000000000000000000000000000000 *
1A
#580000
0A
#590000
b10000000000000000000000000000000 W
b10000000000000000000000000000000 [
b10000000000000000000000000000000 u
b10000000000000000000000000000000 K
b10000000000000000000000000000000 s
b10000000000000000000000000000000 ""
b10000000000000000000000000000000 E
b10000000000000000000000000000000 !"
b10000000000000000000000000000000 X
b10000000000000000000000000000000 ]
b10 J
b10 i
b10 }
b1 L
b1 h
b1 |
b0 U
b0 f
b0 p
b11 Y
b11 \
b11 e
b11110 H
b11110 j
b11110 ~
1G
b0 V
b0 Z
b0 v
b10 ^
b1 _
b11110 `
b110011 a
b10 Q
b10 m
b10 q
b10 w
b1000001000111100110011 O
b1000001000111100110011 b
b1000001000111100110011 l
b1000001000111100110011 o
b1110100 M
b1110100 y
b1110100 z
b0 7
b1110000 S
b1110000 n
b1110000 t
b1110000 x
b1110000 {
1A
#600000
0A
#610000
b10000000000000000000000000000000 V
b10000000000000000000000000000000 Z
b10000000000000000000000000000000 v
b0 W
b0 [
b0 u
b10000000000000000000000000000000 E
b10000000000000000000000000000000 !"
b10000000000000000000000000000000 X
b10000000000000000000000000000000 ]
b0 K
b0 s
b0 ""
b1 U
b1 f
b1 p
b100 P
b100 g
b100 k
b11 Y
b11 \
b11 e
b11101 H
b11101 j
b11101 ~
b0 J
b0 i
b0 }
b0 L
b0 h
b0 |
1G
b0 ^
b0 _
b11101 `
b1000000 c
b110111 a
b10000000000000000000000000000000 Q
b10000000000000000000000000000000 m
b10000000000000000000000000000000 q
b10000000000000000000000000000000 w
b10000000000000000000111010110111 O
b10000000000000000000111010110111 b
b10000000000000000000111010110111 l
b10000000000000000000111010110111 o
b1111000 M
b1111000 y
b1111000 z
b1110100 S
b1110100 n
b1110100 t
b1110100 x
b1110100 {
b10000000000000000000000000000000 =
1A
#620000
0A
#630000
b1 U
b1 f
b1 p
b11 Y
b11 \
b11 e
b0 P
b0 g
b0 k
b11 H
b11 j
b11 ~
1G
b110 ^
b11 `
b0 c
b10011 a
b110 Q
b110 m
b110 q
b110 w
b110 E
b110 !"
b110 X
b110 ]
b11000000000000110010011 O
b11000000000000110010011 b
b11000000000000110010011 l
b11000000000000110010011 o
b110 V
b110 Z
b110 v
b1111100 M
b1111100 y
b1111100 z
b10000000000000000000000000000000 <
b1111000 S
b1111000 n
b1111000 t
b1111000 x
b1111000 {
1A
#640000
0A
#650000
b10000000000000000000000000000000 W
b10000000000000000000000000000000 [
b10000000000000000000000000000000 u
1F
b10000000000000000000000000000000 I
b10000000000000000000000000000000 r
b10000000000000000000000000000000 #"
b10000000000000000000000000000000 K
b10000000000000000000000000000000 s
b10000000000000000000000000000000 ""
1T
b10 P
b10 g
b10 k
b11101 J
b11101 i
b11101 }
b11110 L
b11110 h
b11110 |
b0 U
b0 f
b0 p
b100 Y
b100 \
b100 e
b0 H
b0 j
b0 ~
0G
b11101 ^
b11110 _
b1100 `
b100011 c
b1 d
b1100011 a
b10001101100 Q
b10001101100 m
b10001101100 q
b10001101100 w
b0 E
b0 !"
b0 X
b0 ]
b1000111110111110001011001100011 O
b1000111110111110001011001100011 b
b1000111110111110001011001100011 l
b1000111110111110001011001100011 o
b10000000000000000000000000000000 V
b10000000000000000000000000000000 Z
b10000000000000000000000000000000 v
b10000000 M
b10000000 y
b10000000 z
b1111100 S
b1111100 n
b1111100 t
b1111100 x
b1111100 {
b110 )
1A
#660000
0A
#670000
b10000000000000000000000000000000 E
b10000000000000000000000000000000 !"
b10000000000000000000000000000000 X
b10000000000000000000000000000000 ]
b10000000000000000000000000000000 V
b10000000000000000000000000000000 Z
b10000000000000000000000000000000 v
b0 W
b0 [
b0 u
0F
b0 I
b0 r
b0 #"
b0 K
b0 s
b0 ""
b1 U
b1 f
b1 p
b1 H
b1 j
b1 ~
1G
b11 Y
b11 \
b11 e
b100 P
b100 g
b100 k
b0 J
b0 i
b0 }
b0 L
b0 h
b0 |
0T
b0 ^
b0 _
b1 `
b1000000 c
b0 d
b110111 a
b10000000000000000000000000000000 Q
b10000000000000000000000000000000 m
b10000000000000000000000000000000 q
b10000000000000000000000000000000 w
b10000000000000000000000010110111 O
b10000000000000000000000010110111 b
b10000000000000000000000010110111 l
b10000000000000000000000010110111 o
b10000100 M
b10000100 y
b10000100 z
b10000000 S
b10000000 n
b10000000 t
b10000000 x
b10000000 {
1A
#680000
0A
#690000
b1 U
b1 f
b1 p
b11 Y
b11 \
b11 e
b100 P
b100 g
b100 k
b10 H
b10 j
b10 ~
1G
b11111 ^
b11111 _
b10 `
b1111111 c
b11111111111111111000000000000000 Q
b11111111111111111000000000000000 m
b11111111111111111000000000000000 q
b11111111111111111000000000000000 w
b11111111111111111000000000000000 E
b11111111111111111000000000000000 !"
b11111111111111111000000000000000 X
b11111111111111111000000000000000 ]
b11111111111111111000000100110111 O
b11111111111111111000000100110111 b
b11111111111111111000000100110111 l
b11111111111111111000000100110111 o
b11111111111111111000000000000000 V
b11111111111111111000000000000000 Z
b11111111111111111000000000000000 v
b10001000 M
b10001000 y
b10001000 z
b10000100 S
b10000100 n
b10000100 t
b10000100 x
b10000100 {
1A
#700000
0A
#710000
b10000000000000000000000000000000 W
b10000000000000000000000000000000 [
b10000000000000000000000000000000 u
b11111111111111111000000000000000 I
b11111111111111111000000000000000 r
b11111111111111111000000000000000 #"
b10000000000000000000000000000000 K
b10000000000000000000000000000000 s
b10000000000000000000000000000000 ""
b10 J
b10 i
b10 }
b1 L
b1 h
b1 |
b0 U
b0 f
b0 p
b11 Y
b11 \
b11 e
b0 P
b0 g
b0 k
b11110 H
b11110 j
b11110 ~
1G
b10 ^
b1 _
b11110 `
b0 c
b110011 a
b10 Q
b10 m
b10 q
b10 w
b1111111111111111000000000000000 E
b1111111111111111000000000000000 !"
b1111111111111111000000000000000 X
b1111111111111111000000000000000 ]
b1000001000111100110011 O
b1000001000111100110011 b
b1000001000111100110011 l
b1000001000111100110011 o
b11111111111111111000000000000000 V
b11111111111111111000000000000000 Z
b11111111111111111000000000000000 v
b10001100 M
b10001100 y
b10001100 z
b11111111111111111000000000000000 7
b10001000 S
b10001000 n
b10001000 t
b10001000 x
b10001000 {
1A
#720000
0A
